<?xml version='1.0' encoding='UTF-8' standalone='no'?>
<!-- Created with Fritzing (http://www.fritzing.org/) -->
<svg xmlns="http://www.w3.org/2000/svg" baseProfile="tiny" xmlns:svg="http://www.w3.org/2000/svg" version="1.2" y="0in" x="0in" height="1.98583in"  viewBox="0 0 143.031 142.98" width="1.98654in">
 <g partID="426960">
  <g transform="translate(137.422,126.629)">
   <g transform="matrix(-1,0,0,-1,0,0)">
    <g id="copper0">
     <circle fill="white" stroke-width="2.16" stroke="white" cy="5.04" cx="5.04" r="3.55465" id="connector0pin"/>
     <circle fill="white" stroke-width="2.16" stroke="white" cy="12.24" cx="5.04" r="3.55465" id="connector1pin"/>
     <circle fill="white" stroke-width="2.16" stroke="white" cy="19.44" cx="5.04" r="3.55465" id="connector2pin"/>
     <circle fill="white" stroke-width="2.16" stroke="white" cy="26.64" cx="5.04" r="3.55465" id="connector3pin"/>
     <circle fill="white" stroke-width="2.16" stroke="white" cy="33.84" cx="5.04" r="3.55465" id="connector4pin"/>
     <circle fill="white" stroke-width="2.16" stroke="white" cy="41.04" cx="5.04" r="3.55465" id="connector5pin"/>
     <circle fill="white" stroke-width="2.16" stroke="white" cy="48.24" cx="5.04" r="3.55465" id="connector6pin"/>
     <circle fill="white" stroke-width="2.16" stroke="white" cy="55.44" cx="5.04" r="3.55465" id="connector7pin"/>
     <circle fill="white" stroke-width="2.16" stroke="white" cy="62.64" cx="5.04" r="3.55465" id="connector8pin"/>
     <circle fill="white" stroke-width="2.16" stroke="white" cy="69.84" cx="5.04" r="3.55465" id="connector9pin"/>
     <circle fill="white" stroke-width="2.16" stroke="white" cy="77.04" cx="5.04" r="3.55465" id="connector10pin"/>
     <circle fill="white" stroke-width="2.16" stroke="white" cy="84.24" cx="5.04" r="3.55465" id="connector11pin"/>
     <circle fill="white" stroke-width="2.16" stroke="white" cy="91.44" cx="5.04" r="3.55465" id="connector12pin"/>
     <circle fill="white" stroke-width="2.16" stroke="white" cy="98.64" cx="5.04" r="3.55465" id="connector13pin"/>
     <circle fill="white" stroke-width="2.16" stroke="white" cy="105.84" cx="5.04" r="3.55465" id="connector14pin"/>
    </g>
   </g>
  </g>
 </g>
 <g partID="427020">
  <g transform="translate(72.6224,126.629)">
   <g transform="matrix(-1,0,0,-1,0,0)">
    <g id="copper0">
     <circle fill="white" stroke-width="2.16" stroke="white" cy="5.04" cx="5.04" r="3.55465" id="connector0pin"/>
     <circle fill="white" stroke-width="2.16" stroke="white" cy="12.24" cx="5.04" r="3.55465" id="connector1pin"/>
     <circle fill="white" stroke-width="2.16" stroke="white" cy="19.44" cx="5.04" r="3.55465" id="connector2pin"/>
     <circle fill="white" stroke-width="2.16" stroke="white" cy="26.64" cx="5.04" r="3.55465" id="connector3pin"/>
     <circle fill="white" stroke-width="2.16" stroke="white" cy="33.84" cx="5.04" r="3.55465" id="connector4pin"/>
     <circle fill="white" stroke-width="2.16" stroke="white" cy="41.04" cx="5.04" r="3.55465" id="connector5pin"/>
     <circle fill="white" stroke-width="2.16" stroke="white" cy="48.24" cx="5.04" r="3.55465" id="connector6pin"/>
     <circle fill="white" stroke-width="2.16" stroke="white" cy="55.44" cx="5.04" r="3.55465" id="connector7pin"/>
     <circle fill="white" stroke-width="2.16" stroke="white" cy="62.64" cx="5.04" r="3.55465" id="connector8pin"/>
     <circle fill="white" stroke-width="2.16" stroke="white" cy="69.84" cx="5.04" r="3.55465" id="connector9pin"/>
     <circle fill="white" stroke-width="2.16" stroke="white" cy="77.04" cx="5.04" r="3.55465" id="connector10pin"/>
     <circle fill="white" stroke-width="2.16" stroke="white" cy="84.24" cx="5.04" r="3.55465" id="connector11pin"/>
     <circle fill="white" stroke-width="2.16" stroke="white" cy="91.44" cx="5.04" r="3.55465" id="connector12pin"/>
     <circle fill="white" stroke-width="2.16" stroke="white" cy="98.64" cx="5.04" r="3.55465" id="connector13pin"/>
     <circle fill="white" stroke-width="2.16" stroke="white" cy="105.84" cx="5.04" r="3.55465" id="connector14pin"/>
    </g>
   </g>
  </g>
 </g>
 <g partID="334160">
  <g transform="translate(35.32,91.2128)">
   <g transform="matrix(0,1,-1,0,0,0)">
    <g id="copper0">
     <g id="copper1">
      <circle fill="white" stroke-width="1.85384" stroke="white" cy="10.6336" cx="8.7876" r="1.7008" id="connector1pad"/>
      <rect stroke-width="1.85384" fill="white" stroke="white" y="8.9328" x="7.0868" height="3.4016" width="3.4016"/>
      <circle fill="white" stroke-width="1.85384" stroke="white" cy="3.5464" cx="8.7876" r="1.7008" id="connector0pad"/>
     </g>
    </g>
   </g>
  </g>
 </g>
 <g partID="398300">
  <g transform="translate(12.6216,124.048)">
   <g id="copper0">
    <circle fill="white" stroke-width="2.16" stroke="white" cy="4.752" cx="4.752" r="1.98" id="connector0pad"/>
    <circle fill="white" stroke-width="2.16" stroke="white" cy="4.752" cx="76.752" r="1.98" id="connector1pad"/>
   </g>
  </g>
 </g>
 <g partID="398510">
  <g transform="translate(84.6216,88.048)">
   <g id="copper0">
    <circle fill="white" stroke-width="2.16" stroke="white" cy="40.752" cx="4.752" r="1.98" id="connector0pad"/>
    <circle fill="white" stroke-width="2.16" stroke="white" cy="4.752" cx="4.752" r="1.98" id="connector1pad"/>
   </g>
  </g>
 </g>
 <g partID="309300">
  <g transform="translate(43.0776,88.3)">
   <g transform="matrix(0,-1,1,0,0,0)">
    <g id="copper0">
     <g id="copper1">
      <!-- <rect width="55" x="10" y="15.5" fill="none" height="55" stroke="rgb(255, 191, 0)" stroke-width="20" />  -->
      <circle fill="white" stroke-width="2.16" stroke="white" cy="3.096" cx="2.7" r="1.98" id="connector0pin"/>
      <circle fill="white" stroke-width="2.16" stroke="white" cy="3.096" cx="31.5" r="1.98" id="connector1pin"/>
     </g>
    </g>
   </g>
  </g>
 </g>
 <g partID="324770">
  <g transform="translate(106.87,90.1)">
   <g transform="matrix(0,1,-1,0,0,0)">
    <g id="copper0">
     <g id="copper1">
      <!-- <rect width="55" x="10" y="15.5" fill="none" height="55" stroke="rgb(255, 191, 0)" stroke-width="20" />  -->
      <circle fill="white" stroke-width="2.16" stroke="white" cy="3.096" cx="2.7" r="1.98" id="connector0pin"/>
      <circle fill="white" stroke-width="2.16" stroke="white" cy="3.096" cx="31.5" r="1.98" id="connector1pin"/>
     </g>
    </g>
   </g>
  </g>
 </g>
 <g partID="309350">
  <g transform="translate(121.27,90.1)">
   <g transform="matrix(0,1,-1,0,0,0)">
    <g id="copper0">
     <g id="copper1">
      <!-- <rect width="55" x="10" y="15.5" fill="none" height="55" stroke="rgb(255, 191, 0)" stroke-width="20" />  -->
      <circle fill="white" stroke-width="2.16" stroke="white" cy="3.096" cx="2.7" r="1.98" id="connector0pin"/>
      <circle fill="white" stroke-width="2.16" stroke="white" cy="3.096" cx="31.5" r="1.98" id="connector1pin"/>
     </g>
    </g>
   </g>
  </g>
 </g>
 <g partID="315740">
  <g transform="translate(56.0736,124.3)">
   <g transform="matrix(-1,0,0,-1,0,0)">
    <g id="copper0">
     <g id="copper1">
      <!-- <rect width="55" x="10" y="10" fill="none" height="55" stroke="rgb(255, 191, 0)" stroke-width="20" /> -->
      <circle fill="white" stroke-width="2.16" stroke="white" cy="2.7" cx="2.7" r="1.98" id="connector0pin"/>
      <circle fill="white" stroke-width="2.16" stroke="white" cy="2.7" cx="24.3" r="1.98" id="connector1pin"/>
     </g>
    </g>
   </g>
  </g>
 </g>
 <g partID="316700">
  <g transform="translate(44.0136,8.56)">
   <g transform="matrix(0,1,-1,0,0,0)">
    <g id="copper0">
     <rect fill="white" stroke-width="2.16" stroke="white" y="2.952" height="4.176" x="2.952" id="square" width="4.176"/>
     <circle fill="white" stroke-width="2.16" stroke="white" cy="5.04" cx="5.04" r="2.088" id="connector0pin"/>
     <circle fill="white" stroke-width="2.16" stroke="white" cy="12.24" cx="5.04" r="2.088" id="connector1pin"/>
    </g>
   </g>
  </g>
 </g>
 <g partID="318180">
  <g transform="translate(34.6197,28.7539)">
   <g transform="matrix(0,1,-1,0,0,0)">
    <g id="copper0">
     <circle fill="white" stroke-width="2.16" stroke="white" cy="15.6024" cx="20.8462" r="1.98" id="connector0pad"/>
     <circle fill="white" stroke-width="2.16" stroke="white" cy="15.6024" cx="2.42064" r="1.98" id="connector1pad"/>
     <circle fill="white" stroke-width="2.16" stroke="white" cy="2.84616" cx="20.8462" r="1.98" id="connector2pad"/>
     <circle fill="white" stroke-width="2.16" stroke="white" cy="2.84616" cx="2.42064" r="1.98" id="connector3pad"/>
    </g>
   </g>
  </g>
 </g>
 <g partID="319900">
  <g transform="translate(44.0136,83.44)">
   <g transform="matrix(-1,0,0,-1,0,0)">
    <g id="copper0">
     <rect fill="white" stroke-width="2.16" stroke="white" y="2.952" height="4.176" x="2.952" id="square" width="4.176"/>
     <circle fill="white" stroke-width="2.16" stroke="white" cy="5.04" cx="5.04" r="2.088" id="connector0pin"/>
     <circle fill="white" stroke-width="2.16" stroke="white" cy="12.24" cx="5.04" r="2.088" id="connector1pin"/>
     <circle fill="white" stroke-width="2.16" stroke="white" cy="19.44" cx="5.04" r="2.088" id="connector2pin"/>
    </g>
   </g>
  </g>
 </g>
 <g partID="427400">
  <g transform="translate(29.6136,83.44)">
   <g transform="matrix(-1,0,0,-1,0,0)">
    <g id="copper0">
     <circle fill="white" stroke-width="2.16" stroke="white" cy="5.04" cx="5.04" r="3.55465" id="connector0pin"/>
     <circle fill="white" stroke-width="2.16" stroke="white" cy="12.24" cx="5.04" r="3.55465" id="connector1pin"/>
     <circle fill="white" stroke-width="2.16" stroke="white" cy="19.44" cx="5.04" r="3.55465" id="connector2pin"/>
    </g>
   </g>
  </g>
 </g>
</svg>
